{
	"info": {
		"_postman_id": "4b7f3fd2-b99e-4aef-88a5-c00f73f8d065",
		"name": "Joubert Entertainment",
		"schema": "https://schema.getpostman.com/json/collection/v2.1.0/collection.json"
	},
	"item": [
		{
			"name": "Films - Get",
			"request": {
				"method": "GET",
				"header": [],
				"url": {
					"raw": "https://localhost:5001/films",
					"protocol": "https",
					"host": [
						"localhost"
					],
					"port": "5001",
					"path": [
						"films"
					]
				}
			},
			"response": []
		},
		{
			"name": "Films - Get Single",
			"request": {
				"method": "GET",
				"header": [],
				"url": {
					"raw": "https://localhost:5001/films/c5cf828e-0d0f-4de0-93fd-2ef9666e50d9",
					"protocol": "https",
					"host": [
						"localhost"
					],
					"port": "5001",
					"path": [
						"films",
						"c5cf828e-0d0f-4de0-93fd-2ef9666e50d9"
					]
				}
			},
			"response": []
		},
		{
			"name": "Films - Insert",
			"request": {
				"method": "POST",
				"header": [],
				"body": {
					"mode": "raw",
					"raw": "{\n\t\"FilmId\": \"41a84c03-f74f-4dac-a642-4edfa5ec2fc9\",\n\t\"FilmTitle\": \"Moving On\",\n\t\"LogLine\": \"A young therapist deals with a nasty client\",\n\t\"ReleaseDate\": \"2020-12-01\",\n\t\"Budget\": 10000.0,\n\t\"BoxOffice\": 0.0\n}",
					"options": {
						"raw": {
							"language": "json"
						}
					}
				},
				"url": {
					"raw": "https://localhost:5001/films",
					"protocol": "https",
					"host": [
						"localhost"
					],
					"port": "5001",
					"path": [
						"films"
					]
				}
			},
			"response": []
		},
		{
			"name": "Films - Update",
			"request": {
				"method": "PUT",
				"header": [],
				"body": {
					"mode": "raw",
					"raw": "{\n\t\"FilmId\": \"41a84c03-f74f-4dac-a642-4edfa5ec2fc9\",\n\t\"FilmTitle\": \"Moving On\",\n\t\"LogLine\": \"A young therapist deals with a nasty patient.\",\n\t\"ReleaseDate\": \"2020-12-01\",\n\t\"Budget\": 10000.0,\n\t\"BoxOffice\": 0.0\n}",
					"options": {
						"raw": {
							"language": "json"
						}
					}
				},
				"url": {
					"raw": "https://localhost:5001/films/41a84c03-f74f-4dac-a642-4edfa5ec2fc9",
					"protocol": "https",
					"host": [
						"localhost"
					],
					"port": "5001",
					"path": [
						"films",
						"41a84c03-f74f-4dac-a642-4edfa5ec2fc9"
					]
				}
			},
			"response": []
		},
		{
			"name": "Films - Delete",
			"request": {
				"method": "DELETE",
				"header": [],
				"url": {
					"raw": "https://localhost:5001/films/41a84c03-f74f-4dac-a642-4edfa5ec2fc9",
					"protocol": "https",
					"host": [
						"localhost"
					],
					"port": "5001",
					"path": [
						"films",
						"41a84c03-f74f-4dac-a642-4edfa5ec2fc9"
					]
				}
			},
			"response": []
		}
	],
	"protocolProfileBehavior": {}
}